compile/test.vcd
$date
	Sat Nov 30 18:06:38 2024
$end

$version
	Synopsys VCS version U-2023.03
$end

$timescale
	1ps
$end

$comment Csum: 1 9fa50083a2015481 $end


$scope module ahb_config_pcounter_testbench_top $end
$var wire 1 ! clk_sig_0 $end
$var wire 1 " rst_sig_0 $end

$scope begin unnamed$$_vcs_0 $end
$upscope $end


$scope module ahb_slave_interface $end
$var reg 1 # HCLK $end
$var reg 1 $ HRESETn $end
$var reg 32 % HADDR [31:0] $end
$var reg 2 & HTRANS [1:0] $end
$var reg 1 ' HWRITE $end
$var reg 3 ( HSIZE [2:0] $end
$var reg 3 ) HBURST [2:0] $end
$var reg 4 * HPROT [3:0] $end
$var reg 32 + HWDATA [31:0] $end
$var reg 1 , HSELx $end
$var reg 32 - HRDATA [31:0] $end
$var reg 1 . HREADY $end
$var reg 1 / HREADY_IN $end
$var reg 2 0 HRESP [1:0] $end
$var reg 1 # vk_clk_port $end
$var reg 1 1 vk_rst_port $end
$var reg 1 2 HBUSREQx $end
$var reg 1 3 HLOCKx $end
$var reg 1 4 HGRANTx $end
$var reg 4 5 HMASTER [3:0] $end
$var reg 1 6 HMASTLOCK $end
$var reg 16 7 HSPLITx [15:0] $end
$upscope $end


$scope module dut $end
$var reg 1 # hclk $end
$var reg 1 $ hreset_n $end
$var reg 1 / hready_in $end
$var reg 32 8 haddr [31:0] $end
$var reg 32 9 hwdata [31:0] $end
$var reg 32 : hrdata [31:0] $end
$var reg 1 ; hwrite $end
$var reg 2 < hresp [1:0] $end
$var reg 2 = htrans [1:0] $end
$var reg 3 > hburst [2:0] $end
$var reg 3 ? hsize [2:0] $end
$var reg 1 @ hready $end
$var reg 1 , hsel $end
$var reg 4 A hprot [3:0] $end
$var reg 32 B dut_wdata_sig [31:0] $end
$var reg 32 C dut_addr_sig [31:0] $end
$var reg 32 D dut_rdata_sig [31:0] $end
$var reg 1 E dut_wenable_sig $end
$var reg 1 F dut_renable_sig $end
$var reg 1 G cfg_enable_sig $end
$var reg 1 H tmp_count $end
$var reg 2 I p_state [1:0] $end
$var reg 2 J n_state [1:0] $end

$scope module pcounter_i $end
$var wire 1 # clk $end
$var wire 1 $ rst $end
$var wire 1 G cfg_enable $end
$var wire 1 K cfg_rd_wr $end
$var wire 5 L cfg_addr [4:0] $end
$var wire 32 B cfg_wdata [31:0] $end
$var wire 32 D cfg_rdata [31:0] $end
$var wire 32 M counter_o [31:0] $end
$var wire 2 N curr_state_o [1:0] $end
$var reg 32 O csr_dir [31:0] $end
$var reg 32 P csr_min [31:0] $end
$var reg 32 Q csr_max [31:0] $end
$var reg 32 R csr_step [31:0] $end
$var reg 32 M count [31:0] $end
$var reg 2 N curr_state [1:0] $end
$var reg 2 S next_state [1:0] $end
$var reg 32 D rdata [31:0] $end
$var reg 1 T rollover_status $end
$var reg 1 U rollover_enable $end
$var reg 1 V start_counter $end
$upscope $end

$upscope $end


$scope module clk_gen_inst_0 $end
$var reg 1 ! clk_out $end
$upscope $end


$scope module rst_gen_inst_0 $end
$var wire 1 ! clk_in $end
$var reg 1 " rst_out $end
$upscope $end

$upscope $end

$enddefinitions $end

#0
$dumpvars
1!
0"
b00 0
bxxxxxxxxxxxxxxxxxxxxxxxxxxxxxxxx -
bxxxxxxxxxxxxxxxxxxxxxxxxxxxxxxxx +
bxxxx *
bxxx )
bxxx (
bxx &
bxxxxxxxxxxxxxxxxxxxxxxxxxxxxxxxx %
0G
xK
0F
0E
1@
1U
0T
0V
xH
bxxxxxxxxxxxxxxxxxxxxxxxxxxxxxxxx M
b00000000000000000000000000000000 O
b00000000000000000000000000110010 Q
b00000000000000000000000000000010 P
b00000000000000000000000000000001 R
bxx N
bxxxxxxxxxxxxxxxxxxxxxxxxxxxxxxxx C
bxxxxxxxxxxxxxxxxxxxxxxxxxxxxxxxx B
bxxxxxxxxxxxxxxxxxxxxxxxxxxxxxxxx 8
bxxxx A
bxxxxxxxxxxxxxxxxxxxxxxxxxxxxxxxx :
bxxxxxxxxxxxxxxxxxxxxxxxxxxxxxxxx 9
b00 S
bxxxxxxxxxxxxxxxxxxxxxxxxxxxxxxxx D
bxxxxx L
b000 >
b00 <
b000 ?
b00 =
b10 J
b10 I
bxxxxxxxxxxxxxxxx 7
x6
bxxxx 5
x4
x3
x2
x;
1#
01
1.
1/
0$
x,
x'
$end
#5000
0!
0#
0H
#10000
1!
1#
b00000000000000000000000000000010 M
#15000
0!
0#
#20000
1!
1#
#25000
0!
0#
#30000
1!
1#
#35000
0!
0#
#40000
1!
1#
#45000
0!
0#
#50000
1!
1#
#55000
0!
0#
#60000
1!
1#
#65000
0!
0#
#70000
1!
1#
#75000
0!
0#
#80000
1!
1#
#85000
0!
0#
#90000
1!
1#
#95000
0!
0#
#100000
1!
1#
#105000
0!
0#
#110000
1!
1#
#115000
0!
0#
#120000
1!
1#
#125000
0!
0#
#130000
1!
1#
#135000
0!
0#
#140000
1!
1#
#145000
0!
0#
#150000
1!
1#
1"
11
1$
#155000
0!
0#
#160000
1!
1#
b00 N
b00000000000000000000000000000100 %
b00000000000000000000000000000100 8
b00100 L
1'
1;
0K
b10 &
b10 =
b01 J
#165000
0!
0#
1G
1H
#170000
1!
1#
b00 &
b00 =
b00000000000000000000000000000000 +
b00000000000000000000000000000000 9
bxxxxxxxxxxxxxxxxxxxxxxxxxxxxxxxx P
bxxxxxxxxxxxxxxxxxxxxxxxxxxxxxxxx M
b01 I
b00000000000000000000000000000100 C
1E
b00000000000000000000000000000000 B
#175000
0!
0#
0H
#180000
1!
1#
b00000000000000000000000000001000 %
b00000000000000000000000000001000 8
b01000 L
b10 &
b10 =
b00000000000000000000000000000000 P
b00000000000000000000000000000000 M
#185000
0!
0#
1H
#190000
1!
1#
b00 &
b00 =
b00000000000000000000000001100100 +
b00000000000000000000000001100100 9
b00000000000000000000000000000000 Q
b00000000000000000000000000001000 C
b00000000000000000000000001100100 B
#195000
0!
0#
0H
#200000
1!
1#
b00000000000000000000000000001100 %
b00000000000000000000000000001100 8
b01100 L
b10 &
b10 =
b00000000000000000000000001100100 Q
#205000
0!
0#
1H
#210000
1!
1#
b00 &
b00 =
b00000000000000000000000000000101 +
b00000000000000000000000000000101 9
b00000000000000000000000001100100 R
b00000000000000000000000000001100 C
b00000000000000000000000000000101 B
#215000
0!
0#
0H
#220000
1!
1#
b00000000000000000000000000011100 %
b00000000000000000000000000011100 8
b11100 L
b10 &
b10 =
b00000000000000000000000000000101 R
#225000
0!
0#
1H
#230000
1!
1#
b00 &
b00 =
b00000000000000000000000000000001 +
b00000000000000000000000000000001 9
1V
b00000000000000000000000000011100 C
b00000000000000000000000000000001 B
#235000
0!
0#
0H
#240000
1!
1#
#245000
0!
0#
0G
#250000
1!
1#
b00000000000000000000000000000101 M
#255000
0!
0#
#260000
1!
1#
b00000000000000000000000000001010 M
#265000
0!
0#
#270000
1!
1#
b00000000000000000000000000001111 M
#275000
0!
0#
#280000
1!
1#
b00000000000000000000000000010100 M
#285000
0!
0#
#290000
1!
1#
b00000000000000000000000000011001 M
#295000
0!
0#
#300000
1!
1#
b00000000000000000000000000011110 M
#305000
0!
0#
#310000
1!
1#
b00000000000000000000000000100011 M
#315000
0!
0#
#320000
1!
1#
b00000000000000000000000000101000 M
#325000
0!
0#
#330000
1!
1#
b00000000000000000000000000101101 M
#335000
0!
0#
#340000
1!
1#
b00000000000000000000000000110010 M
#345000
0!
0#
#350000
1!
1#
b00000000000000000000000000110111 M
#355000
0!
0#
#360000
1!
1#
b00000000000000000000000000111100 M
#365000
0!
0#
#370000
1!
1#
b00000000000000000000000001000001 M
#375000
0!
0#
#380000
1!
1#
b00000000000000000000000001000110 M
#385000
0!
0#
#390000
1!
1#
b00000000000000000000000001001011 M
#395000
0!
0#
#400000
1!
1#
b00000000000000000000000001010000 M
#405000
0!
0#
#410000
1!
1#
b00000000000000000000000001010101 M
#415000
0!
0#
#420000
1!
1#
b00000000000000000000000001011010 M
#425000
0!
0#
#430000
1!
1#
b00000000000000000000000001011111 M
#435000
0!
0#
#440000
1!
1#
b00000000000000000000000001100100 M
#445000
0!
0#
#450000
1!
1#
b00000000000000000000000000000000 M
1T
#455000
0!
0#
#460000
1!
1#
b00000000000000000000000000000101 M
0T
#465000
0!
0#
#470000
1!
1#
b00000000000000000000000000001010 M
#475000
0!
0#
#480000
1!
1#
b00000000000000000000000000001111 M
#485000
0!
0#
#490000
1!
1#
b00000000000000000000000000010100 M
#495000
0!
0#
#500000
1!
1#
b00000000000000000000000000011001 M
#505000
0!
0#
#510000
1!
1#
b00000000000000000000000000011110 M
#515000
0!
0#
#520000
1!
1#
b00000000000000000000000000100011 M
#525000
0!
0#
#530000
1!
1#
b00000000000000000000000000101000 M
#535000
0!
0#
#540000
1!
1#
b00000000000000000000000000101101 M
#545000
0!
0#
#550000
1!
1#
b00000000000000000000000000110010 M
#555000
0!
0#
#560000
1!
1#
b00000000000000000000000000110111 M
#565000
0!
0#
#570000
1!
1#
b00000000000000000000000000111100 M
#575000
0!
0#
#580000
1!
1#
b00000000000000000000000001000001 M
#585000
0!
0#
#590000
1!
1#
b00000000000000000000000001000110 M
#595000
0!
0#
#600000
1!
1#
b00000000000000000000000001001011 M
#605000
0!
0#
#610000
1!
1#
b00000000000000000000000001010000 M
#615000
0!
0#
#620000
1!
1#
b00000000000000000000000001010101 M
#625000
0!
0#
#630000
1!
1#
b00000000000000000000000001011010 M
#635000
0!
0#
#640000
1!
1#
b00000000000000000000000001011111 M
#645000
0!
0#
#650000
1!
1#
b00000000000000000000000001100100 M
#655000
0!
0#
#660000
1!
1#
b00000000000000000000000000000000 M
1T
#665000
0!
0#
#670000
1!
1#
b00000000000000000000000000000101 M
0T
#675000
0!
0#
#680000
1!
1#
b00000000000000000000000000001010 M
#685000
0!
0#
#690000
1!
1#
b00000000000000000000000000001111 M
#695000
0!
0#
#700000
1!
1#
b00000000000000000000000000010100 M
#705000
0!
0#
#710000
1!
1#
b00000000000000000000000000011001 M
#715000
0!
0#
#720000
1!
1#
b00000000000000000000000000011110 M
#725000
0!
0#
#730000
1!
1#
b00000000000000000000000000100011 M
#735000
0!
0#
#740000
1!
1#
b00000000000000000000000000101000 M
#745000
0!
0#
#750000
1!
1#
b00000000000000000000000000101101 M
#755000
0!
0#
#760000
1!
1#
b00000000000000000000000000110010 M
#765000
0!
0#
#770000
1!
1#
b00000000000000000000000000110111 M
#775000
0!
0#
#780000
1!
1#
b00000000000000000000000000111100 M
#785000
0!
0#
#790000
1!
1#
b00000000000000000000000001000001 M
#795000
0!
0#
#800000
1!
1#
b00000000000000000000000001000110 M
#805000
0!
0#
#810000
1!
1#
b00000000000000000000000001001011 M
#815000
0!
0#
#820000
1!
1#
b00000000000000000000000001010000 M
#825000
0!
0#
#830000
1!
1#
b00000000000000000000000001010101 M
#835000
0!
0#
#840000
1!
1#
b00000000000000000000000001011010 M
#845000
0!
0#
#850000
1!
1#
b00000000000000000000000001011111 M
#855000
0!
0#
#860000
1!
1#
b00000000000000000000000001100100 M
#865000
0!
0#
#870000
1!
1#
b00000000000000000000000000000000 M
1T
#875000
0!
0#
#880000
1!
1#
b00000000000000000000000000000101 M
0T
#885000
0!
0#
#890000
1!
1#
b00000000000000000000000000001010 M
#895000
0!
0#
#900000
1!
1#
b00000000000000000000000000001111 M
#905000
0!
0#
#910000
1!
1#
b00000000000000000000000000010100 M
#915000
0!
0#
#920000
1!
1#
b00000000000000000000000000011001 M
#925000
0!
0#
#930000
1!
1#
b00000000000000000000000000011110 M
#935000
0!
0#
#940000
1!
1#
b00000000000000000000000000100011 M
#945000
0!
0#
#950000
1!
1#
b00000000000000000000000000101000 M
#955000
0!
0#
#960000
1!
1#
b00000000000000000000000000101101 M
#965000
0!
0#
#970000
1!
1#
b00000000000000000000000000110010 M
#975000
0!
0#
#980000
1!
1#
b00000000000000000000000000110111 M
